{
  "name": "subject",
  "plural": "subjects",
  "base": "PersistedModel",
  "idInjection": true,
  "options": {
    "validateUpsert": true
  },
  "properties": {
    "subject_name": {
      "type": "string",
      "required": true
    },
    "subject_color": {
      "type": "string",
      "required": true
    },
    "subject_thumb": {
      "type": "string"
    },
    "archived": {
      "type": "boolean",
      "default": false
    },
    "optional": {
      "type": "object"
    },
    "extras": {
      "type": [
        "object"
      ]
    }
  },
  "validations": [],
  "relations": {
    "books": {
      "type": "hasMany",
      "model": "book",
      "foreignKey": ""
    }
  },
  "acls": [
    {
      "accessType": "READ",
      "principalType": "ROLE",
      "principalId": "$everyone",
      "permission": "ALLOW"
    }
  ],
  "methods": {}
}
